Command line:
   t_microFuncion_isim_beh.exe
     -simmode  gui
     -simrunnum  0
     -socket  61933

Tue Jun 06 16:03:21 2017


 Elaboration Time: 0.171602 sec

 Current Memory Usage: 659.784 Meg

 Total Signals          : 4
 Total Nets             : 24
 Total Signal Drivers   : 2
 Total Blocks           : 5
 Total Primitive Blocks : 4
 Total Processes        : 2
 Total Traceable Variables  : 24
 Total Scalar Nets and Variables : 944
Total Line Count : 25

 Total Simulation Time: 0.187202 sec

 Current Memory Usage: 659.784 Meg

Tue Jun 06 16:03:29 2017

