vhdl work "P_practica9.vhd"
vhdl work "practica9I.vhd"
vhdl work "practica9H.vhd"
vhdl work "practica9G.vhd"
vhdl work "practica9F.vhd"
vhdl work "practica9E.vhd"
vhdl work "practica9D.vhd"
vhdl work "practica9C.vhd"
vhdl work "practica9B.vhd"
vhdl work "practica9A.vhd"
vhdl work "P_ESCOMips.vhd"
vhdl work "practica9.vhd"
vhdl work "practica6B.vhd"
vhdl work "practica6A.vhd"
vhdl work "practica5.vhd"
vhdl work "practica4.vhd"
vhdl work "practica3.vhd"
vhdl work "EXTSIG.vhd"
vhdl work "EXTDIR.vhd"
vhdl work "ESCOMips.vhd"
