work	"../Condicion/Condicion.vhd"
work	"../Control/Control.vhd"
work	"../DecoInstruc/DecoInstruc.vhd"
work	"../DemuxCodOpera/DemuxCodOpera.vhd"
work	"../DemuxS/DemuxS.vhd"
work	"../MicrocodFuncion/MicrocodFuncion.vhd"
work	"../MicrocodOperacion/microcodOperacion.vhd"
work	"../Nivel/Nivel.vhd"
work	"../RegistroEstado/RegistroEstado.vhd"
work	"Componentes.vhd"
work	"P10.vhd"
