vhdl work "UnidadControl.vhd"
vhdl work "reg_edo.vhd"
vhdl work "paquete_entidades.vhd"
vhdl work "P3_ALU_1bit.vhd"
vhdl work "nivel.vhd"
vhdl work "mux_salida.vhd"
vhdl work "mux_opCode.vhd"
vhdl work "microcodigoOpCode.vhd"
vhdl work "microcodigoFuncion.vhd"
vhdl work "decoInst.vhd"
vhdl work "condicion.vhd"
vhdl work "paquete_entidadesESCOMIPS.vhd"
vhdl work "P7_Pila.vhd"
vhdl work "P6_MemoriaPrograma.vhd"
vhdl work "P5_MemoriaDatos.vhd"
vhdl work "P4_ArchivoRegistros.vhd"
vhdl work "P3_ALU_Nbits.vhd"
vhdl work "main.vhd"
vhdl work "FlipFlop_clr.vhd"
vhdl work "extensorSigno.vhd"
vhdl work "extensorDireccion.vhd"
vhdl work "PFinal_Escomips_Main.vhd"
