      A OPCODE 19..16 15..12 11...8 7....4 3....0
    001  00001   0001   0000   0000   0000   1010
    002  00000   0001   0001   0000   0000   0000
    003  00011   0001   0000   0000   0000   0101
    004  10011   0000   0000   0000   0000   0010
    002  00000   0001   0001   0000   0000   0000
    003  00011   0001   0000   0000   0000   0101
    000  00001   0000   0000   0000   0000   0101
