vhdl work "reg_edo.vhd"
vhdl work "paquete_entidades.vhd"
vhdl work "nivel.vhd"
vhdl work "mux_salida.vhd"
vhdl work "mux_opCode.vhd"
vhdl work "microcodigoOpCode.vhd"
vhdl work "microcodigoFuncion.vhd"
vhdl work "decoInst.vhd"
vhdl work "condicion.vhd"
vhdl work "../P10_entidades/UnidadControl/UnidadControl.vhd"
vhdl work "main.vhd"
vhdl work "P10_UnidadControl_TestBench.vhd"
