Command line:
   nivel_TestBench_isim_beh.exe
     -simmode  gui
     -simrunnum  0
     -socket  51338

Wed Dec 06 13:34:54 2017


 Elaboration Time: 0.0468 sec

 Current Memory Usage: 667.132 Meg

 Total Signals          : 8
 Total Nets             : 5
 Total Signal Drivers   : 5
 Total Blocks           : 3
 Total Primitive Blocks : 2
 Total Processes        : 5
 Total Traceable Variables  : 9
 Total Scalar Nets and Variables : 366
Total Line Count : 17

 Total Simulation Time: 0.249601 sec

 Current Memory Usage: 667.132 Meg

Wed Dec 06 13:35:04 2017

