0000 0 0 0 1 
0000 0 0 0 0 
0000 0 0 0 0 
0000 0 0 0 0 
0000 0 0 0 0 
0002 0 0 1 0 
0000 0 0 0 0 
0000 0 0 0 0 
0000 0 0 0 0 
0000 0 0 0 0 
0000 0 0 0 1 
0000 0 0 0 0 
0000 0 0 0 0 
0000 0 0 0 0 
0000 0 0 0 0 
0002 0 0 1 0 
0000 0 0 0 0 
0000 0 0 0 0 
0000 0 0 0 0 
0000 0 0 0 0 
