Running: C:\Xilinx\14.7\ISE_DS\ISE\bin\nt64\unwrapped\fuse.exe -intstyle ise -incremental -lib secureip -o C:/Users/leonardo faydella/Desktop/ProyectoFinal/barrel_shifter/TESTBENCH_BARREL_isim_beh.exe -prj C:/Users/leonardo faydella/Desktop/ProyectoFinal/barrel_shifter/TESTBENCH_BARREL_beh.prj work.TESTBENCH_BARREL 
ISim P.20131013 (signature 0x7708f090)
Number of CPUs detected in this system: 4
Turning on mult-threading, number of parallel sub-compilation jobs: 8 
Determining compilation order of HDL files
Parsing VHDL file "C:/Users/leonardo faydella/Desktop/ProyectoFinal/barrel_shifter/Barrel.vhd" into library work
Parsing VHDL file "C:/Users/leonardo faydella/Desktop/ProyectoFinal/barrel_shifter/TESTBENCH_BARREL.vhd" into library work
Starting static elaboration
Completed static elaboration
Compiling package standard
Compiling package std_logic_1164
Compiling architecture behavioral of entity Barrel [barrel_default]
Compiling architecture behavior of entity testbench_barrel
Time Resolution for simulation is 1ps.
Compiled 5 VHDL Units
Built simulation executable C:/Users/leonardo faydella/Desktop/ProyectoFinal/barrel_shifter/TESTBENCH_BARREL_isim_beh.exe
Fuse Memory Usage: 29892 KB
Fuse CPU Usage: 515 ms
