
****** PlanAhead v14.7 (64-bit)
  **** Build 321239 by xbuild on Fri Sep 27 19:29:51 MDT 2013
    ** Copyright 1986-1999, 2001-2013 Xilinx, Inc. All Rights Reserved.

INFO: [Common 17-78] Attempting to get a license: PlanAhead
INFO: [Common 17-290] Got license for PlanAhead
INFO: [Common 17-86] Your PlanAhead license expires in -1073 day(s)
INFO: [Device 21-36] Loading parts and site information from C:/Xilinx/14.7/ISE_DS/PlanAhead/data/parts/arch.xml
Parsing RTL primitives file [C:/Xilinx/14.7/ISE_DS/PlanAhead/data/parts/xilinx/rtl/prims/rtl_prims.xml]
Finished parsing RTL primitives file [C:/Xilinx/14.7/ISE_DS/PlanAhead/data/parts/xilinx/rtl/prims/rtl_prims.xml]
start_gui
source {C:/Users/Edgar Roa/Documents/8vo sem/Arquitectura/Practica1/Lab_02032017/Lab1_Arqui/pa.fromHdl.tcl}
# create_project -name Lab1_Arqui -dir "C:/Users/Edgar Roa/Documents/8vo sem/Arquitectura/Practica1/Lab_02032017/Lab1_Arqui/planAhead_run_2" -part xc7a100tcsg324-3
create_project: Time (s): elapsed = 00:00:11 . Memory (MB): peak = 409.941 ; gain = 57.129
# set_param project.pinAheadLayout yes
# set srcset [get_property srcset [current_run -impl]]
# set_property target_constrs_file "cascada.ucf" [current_fileset -constrset]
Adding file 'C:/Users/Edgar Roa/Documents/8vo sem/Arquitectura/Practica1/Lab_02032017/Lab1_Arqui/cascada.ucf' to fileset 'constrs_1'
# set hdlfile [add_files [list {casccada.vhd}]]
# set_property file_type VHDL $hdlfile
# set_property library work $hdlfile
# set_property top cascada $srcset
# add_files [list {cascada.ucf}] -fileset [get_property constrset [current_run]]
# open_rtl_design -part xc7a100tcsg324-3
Using Verific elaboration
Parsing VHDL file "C:/Xilinx/14.7/ISE_DS/PlanAhead/data/parts/xilinx/rtl/lib/synplify/synattr.vhd" into library synplify
Parsing VHDL file "C:/Xilinx/14.7/ISE_DS/PlanAhead/data/parts/xilinx/rtl/lib/synplify/synattr.vhd" into library synplify
Parsing VHDL file "C:/Users/Edgar Roa/Documents/8vo sem/Arquitectura/Practica1/Lab_02032017/Lab1_Arqui/casccada.vhd" into library work
Loading clock regions from C:/Xilinx/14.7/ISE_DS/PlanAhead/data\parts/xilinx/artix7/artix7/xc7a100t/ClockRegion.xml
Loading clock buffers from C:/Xilinx/14.7/ISE_DS/PlanAhead/data\parts/xilinx/artix7/artix7/xc7a100t/ClockBuffers.xml
Loading clock placement rules from C:/Xilinx/14.7/ISE_DS/PlanAhead/data/parts/xilinx/artix7/ClockPlacerRules.xml
Loading package pin functions from C:/Xilinx/14.7/ISE_DS/PlanAhead/data\parts/xilinx/artix7/PinFunctions.xml...
Loading package from C:/Xilinx/14.7/ISE_DS/PlanAhead/data\parts/xilinx/artix7/artix7/xc7a100t/csg324/Package.xml
Loading io standards from C:/Xilinx/14.7/ISE_DS/PlanAhead/data\./parts/xilinx/artix7/IOStandards.xml
Loading device configuration modes from C:/Xilinx/14.7/ISE_DS/PlanAhead/data\parts/xilinx/artix7/ConfigModes.xml
Loading list of drcs for the architecture : C:/Xilinx/14.7/ISE_DS/PlanAhead/data\./parts/xilinx/artix7/drc.xml
Parsing UCF File [C:/Users/Edgar Roa/Documents/8vo sem/Arquitectura/Practica1/Lab_02032017/Lab1_Arqui/cascada.ucf]
Finished Parsing UCF File [C:/Users/Edgar Roa/Documents/8vo sem/Arquitectura/Practica1/Lab_02032017/Lab1_Arqui/cascada.ucf]
INFO: [Project 1-111] Unisim Transformation Summary:
No Unisim elements were transformed.

Phase 0 | Netlist Checksum: 080495e8
open_rtl_design: Time (s): elapsed = 00:01:16 . Memory (MB): peak = 790.688 ; gain = 372.008
update_compile_order -fileset sim_1
startgroup
set_property package_pin V10 [get_ports {a[3]}]
endgroup
startgroup
set_property package_pin U11 [get_ports {a[2]}]
endgroup
startgroup
set_property package_pin U12 [get_ports {a[1]}]
endgroup
startgroup
set_property package_pin H6 [get_ports {a[0]}]
endgroup
startgroup
set_property package_pin R16 [get_ports {b[3]}]
endgroup
startgroup
set_property package_pin U8 [get_ports {b[2]}]
endgroup
startgroup
set_property package_pin T8 [get_ports {b[1]}]
endgroup
startgroup
set_property package_pin R13 [get_ports {b[0]}]
endgroup
startgroup
set_property package_pin T18 [get_ports cin]
endgroup
startgroup
set_property package_pin D15 [get_ports cout]
endgroup
startgroup
set_property package_pin D14 [get_ports {s[3]}]
endgroup
startgroup
set_property package_pin D13 [get_ports {s[2]}]
endgroup
startgroup
set_property package_pin D12 [get_ports {s[1]}]
endgroup
set_property package_pin "" [get_ports [list  {s[0]}]]
startgroup
set_property package_pin V12 [get_ports {s[3]}]
endgroup
startgroup
set_property package_pin V15 [get_ports {s[2]}]
endgroup
startgroup
set_property package_pin D12 [get_ports {s[1]}]
endgroup
startgroup
set_property package_pin V14 [get_ports {s[2]}]
endgroup
startgroup
set_property package_pin V15 [get_ports {s[1]}]
endgroup
startgroup
set_property package_pin V16 [get_ports {s[0]}]
endgroup
startgroup
set_property package_pin V14 [get_ports {s[2]}]
endgroup
startgroup
set_property package_pin V11 [get_ports cout]
endgroup
save_constraints
exit
ERROR: [Common 17-39] 'stop_gui' failed due to earlier errors.
INFO: [Common 17-206] Exiting PlanAhead at Thu Mar 08 18:15:57 2018...
INFO: [Common 17-83] Releasing license: PlanAhead
