vhdl work "unidadControl.vhd"
vhdl work "registro.vhd"
vhdl work "paquete_entidades.vhd"
vhdl work "mux.vhd"
vhdl work "deco.vhd"
vhdl work "contador.vhd"
vhdl work "main.vhd"
vhdl work "P8_CartaASM_TestBench.vhd"
