work	"../condicion/condicion.vhd"
work	"../decoInst/decoInst.vhd"
work	"../microFuncion/microFuncion.vhd"
work	"../microOpCode/microOpCode.vhd"
work	"../nivel/nivel.vhd"
work	"../regEdo/regEdo2.vhd"
work	"../unicontrol/unicontrol.vhd"
work	"Union.vhd"
work	"packet.vhd"
