vhdl work "packet.vhd"
vhdl work "../unicontrol/unicontrol.vhd"
vhdl work "../regEdo/regEdo2.vhd"
vhdl work "../nivel/nivel.vhd"
vhdl work "../microOpCode/microOpCode.vhd"
vhdl work "../microFuncion/microFuncion.vhd"
vhdl work "../decoInst/decoInst.vhd"
vhdl work "../condicion/condicion.vhd"
vhdl work "Union.vhd"
